24

5
Kathryne
Berti
Jasmina
Ettie
Staci
2 5 1 4 3
4 2 3 5 1
3 5 4 1 2
3 2 1 5 4
3 1 4 5 2
1 4 2 3 5
2 3 1 4 5
5 1 4 2 3
4 1 3 2 5
1 2 5 4 3

3
Aigneis
Elspeth
Shirleen
1 2 3
3 2 1
3 2 1
3 2 1
1 2 3
3 1 2
1 2 3

4
Estele
Orsola
Helyn
Asia
4 1 3 2
1 2 3 4

2
Tarrah
Vannie
2 1
2 1
2 1
2 1
2 1
1 2
2 1

4
Pat
Sada
Germana
Louisa
4 1 2 3

4
Melinde
Ferdinande
Anabelle
Sephira
3 2 4 1
3 2 1 4
1 2 4 3
4 3 1 2
2 3 4 1

4
Jacqueline
Adah
Hollyanne
Danice
4 2 3 1
3 2 4 1
4 3 2 1
2 1 3 4
1 4 3 2

4
Kathe
Kalie
Tory
Reeta
3 4 1 2
4 2 3 1

1
Johnette
1
1
1

4
Courtnay
Elke
Umeko
Jackie
2 1 4 3
4 1 3 2

5
Yvonne
Stacee
Libbi
Ingrid
Clea
1 3 2 4 5

2
Lurleen
Juliane
2 1
1 2
1 2
1 2
1 2
1 2
1 2
2 1
2 1

4
Lucia
Carri
Danell
Eba
1 4 2 3
1 3 4 2
3 4 1 2
2 1 3 4
3 2 4 1

2
Rickie
Eve
1 2
2 1
1 2
2 1
1 2
2 1
2 1

5
Patsy
Bree
Aurore
Cassaundra
Sibbie
2 5 1 3 4
1 2 4 3 5
3 5 1 2 4
1 4 2 3 5
2 3 5 4 1

3
Glyn
Alana
Anallese
2 1 3

5
Mahala
Nissie
Minerva
Vyky
Rachelle
3 1 2 4 5

1
Biddie
1
1
1
1
1
1

4
Delinda
Eydie
Sherilyn
Tarrah
1 2 3 4
1 3 2 4
1 4 2 3
1 4 3 2

4
Rhianon
Ashely
Blondie
Arlena
2 4 3 1
1 2 3 4
1 4 2 3
3 4 1 2
4 2 1 3
3 2 4 1
2 3 4 1

4
Daphne
Larissa
Melania
Zitella
1 4 2 3
3 4 1 2

1
Alysa
1
1
1
1
1

5
Denyse
Morissa
Regina
Sibylle
Kylen
4 3 2 1 5
5 4 2 1 3
5 2 4 1 3
4 5 2 3 1
3 5 4 1 2
2 4 1 5 3

5
Reeva
Lindi
Dianemarie
Rakel
Babbette
3 1 4 5 2
2 5 1 3 4
4 1 5 3 2
1 5 2 4 3
